{
   "id":-1,
   "aod_id":493,
   "tmdb_id":69291,
   "tmdb_season_id":158694,
   "tmdb_season_number":2,
   "episodes":[
      {
         "id":-1,
         "aod_media_id":7212,
         "tmdb_id":2874606,
         "tmdb_number":1,
         "opening_start":67000,
         "opening_duration":90000,
         "ending_start":1310000,
         "ending_duration":90000
      },
      {
         "id":-1,
         "aod_media_id":7213,
         "tmdb_id":3045378,
         "tmdb_number":2,
         "opening_start":47000,
         "opening_duration":90000,
         "ending_start":1310000,
         "ending_duration":90000
      },
      {
         "id":-1,
         "aod_media_id":7214,
         "tmdb_id":3045380,
         "tmdb_number":3,
         "opening_start":65000,
         "opening_duration":90000,
         "ending_start":1310000,
         "ending_duration":90000
      },
      {
         "id":-1,
         "aod_media_id":7215,
         "tmdb_id":3045381,
         "tmdb_number":4,
         "opening_start":25000,
         "opening_duration":90000,
         "ending_start":1310000,
         "ending_duration":90000
      },
      {
         "id":-1,
         "aod_media_id":7216,
         "tmdb_id":3045382,
         "tmdb_number":5,
         "opening_start":34000,
         "opening_duration":90000,
         "ending_start":1310000,
         "ending_duration":90000
      },
      {
         "id":-1,
         "aod_media_id":7217,
         "tmdb_id":3045383,
         "tmdb_number":6,
         "opening_start":38000,
         "opening_duration":90000,
         "ending_start":1310000,
         "ending_duration":90000
      }
   ]
}
